\relax 
\@writefile{toc}{\contentsline {section}{\numberline {1}Robot lewicowy}{1}}
\@writefile{toc}{\contentsline {section}{\numberline {2}Szacowanie p}{2}}
\@writefile{toc}{\contentsline {section}{\numberline {3}Algorytm Chameleon}{3}}
\@writefile{toc}{\contentsline {section}{\numberline {4}Por\IeC {\'o}wnanie algorytm\IeC {\'o}w}{4}}
\@writefile{lot}{\contentsline {table}{\numberline {1}{\ignorespaces \IeC {\'S}rednia liczba krok\IeC {\'o}w robota}}{4}}
\newlabel{tabela_1}{{1}{4}}
\@writefile{toc}{\contentsline {section}{\numberline {5}Szacowanie p i q w Chameleonie}{4}}
